…
# OHP Project 1

## Preliminaries:

``` r
#get packages
library(pacman)
p_load(data.table, tidyverse, broom, sandwich, haven)
# load in data
df = read_dta('ohp.dta') %>% as.data.table()
tibble(df)
```

    ## # A tibble: 12,229 x 24
    ##    person_id household_id weight_total_inp  treatment age_inp bp_sar_inp chl_inp
    ##        <dbl>        <dbl>            <dbl>  <dbl+lbl>   <dbl>      <dbl>   <dbl>
    ##  1         5       100005            1.15  1 [Select~      60        144    241.
    ##  2         8       102094            0.897 0 [Not se~      41        134    230.
    ##  3        16       140688            1     0 [Not se~      39        126    230.
    ##  4        17       100017            1.21  0 [Not se~      52        168    235.
    ##  5        18       100018            1     0 [Not se~      51        119    178.
    ##  6        23       115253            1.00  1 [Select~      32         98    174.
    ##  7        24       169996            1.20  1 [Select~      34        108    153.
    ##  8        29       100029            1     0 [Not se~      23        125    253.
    ##  9        47       100047            1     0 [Not se~      43        100    199.
    ## 10        57       100057            1.00  1 [Select~      46        104    199.
    ## # ... with 12,219 more rows, and 17 more variables:
    ## #   dep_dx_post_lottery <dbl+lbl>, dep_dx_pre_lottery <dbl+lbl>,
    ## #   dia_dx_post_lottery <dbl+lbl>, dia_dx_pre_lottery <dbl+lbl>,
    ## #   doc_num_mod_inp <dbl>, edu_inp <dbl+lbl>, gender_inp <dbl+lbl>,
    ## #   hbp_dx_post_lottery <dbl+lbl>, hbp_dx_pre_lottery <dbl+lbl>,
    ## #   hispanic_inp <dbl+lbl>, itvw_english_inp <dbl>, numhh_list <dbl+lbl>,
    ## #   ohp_all_ever_survey <dbl+lbl>, race_black_inp <dbl+lbl>, ...
…
